0 0 0 0
1 255 255 255
2 64 64 64
3 0 0 0
4 0 0 0
5 255 0 0
6 0 0 255
16 0 0 255

17 0 127 0
18 0 196 0
19 0 196 0
20 64 226 64
21 64 226 64
22 127 255 127
23 127 255 127
24 255 255 255
25 255 255 255
26 255 255 255
27 255 255 255